%YAML 1.1
%TAG !u! tag:unity3d.com,2011:
--- !u!74 &7400000
AnimationClip:
  m_ObjectHideFlags: 0
  m_CorrespondingSourceObject: {fileID: 0}
  m_PrefabInstance: {fileID: 0}
  m_PrefabAsset: {fileID: 0}
  m_Name: anticipacionWheely
  serializedVersion: 6
  m_Legacy: 0
  m_Compressed: 0
  m_UseHighQualityCurve: 1
  m_RotationCurves: []
  m_CompressedRotationCurves: []
  m_EulerCurves: []
  m_PositionCurves: []
  m_ScaleCurves: []
  m_FloatCurves: []
  m_PPtrCurves:
  - curve:
    - time: 0
      value: {fileID: -1441857236, guid: 35ebb9aa89e0c674b880926992b1de1d, type: 3}
    - time: 0.083333336
      value: {fileID: 408184989, guid: 35ebb9aa89e0c674b880926992b1de1d, type: 3}
    - time: 0.16666667
      value: {fileID: 1326941854, guid: 35ebb9aa89e0c674b880926992b1de1d, type: 3}
    - time: 0.25
      value: {fileID: 609119230, guid: 35ebb9aa89e0c674b880926992b1de1d, type: 3}
    - time: 0.33333334
      value: {fileID: -804576254, guid: 35ebb9aa89e0c674b880926992b1de1d, type: 3}
    - time: 0.41666666
      value: {fileID: 948280559, guid: 35ebb9aa89e0c674b880926992b1de1d, type: 3}
    - time: 0.5
      value: {fileID: 1602637583, guid: 35ebb9aa89e0c674b880926992b1de1d, type: 3}
    - time: 0.5833333
      value: {fileID: -45341016, guid: 35ebb9aa89e0c674b880926992b1de1d, type: 3}
    - time: 0.6666667
      value: {fileID: 839708396, guid: 35ebb9aa89e0c674b880926992b1de1d, type: 3}
    - time: 0.75
      value: {fileID: -1336343225, guid: 35ebb9aa89e0c674b880926992b1de1d, type: 3}
    - time: 0.8333333
      value: {fileID: -290895148, guid: 35ebb9aa89e0c674b880926992b1de1d, type: 3}
    - time: 0.9166667
      value: {fileID: -1441857236, guid: 35ebb9aa89e0c674b880926992b1de1d, type: 3}
    attribute: m_Sprite
    path: 
    classID: 212
    script: {fileID: 0}
  m_SampleRate: 60
  m_WrapMode: 0
  m_Bounds:
    m_Center: {x: 0, y: 0, z: 0}
    m_Extent: {x: 0, y: 0, z: 0}
  m_ClipBindingConstant:
    genericBindings:
    - serializedVersion: 2
      path: 0
      attribute: 0
      script: {fileID: 0}
      typeID: 212
      customType: 23
      isPPtrCurve: 1
    pptrCurveMapping:
    - {fileID: -1441857236, guid: 35ebb9aa89e0c674b880926992b1de1d, type: 3}
    - {fileID: 408184989, guid: 35ebb9aa89e0c674b880926992b1de1d, type: 3}
    - {fileID: 1326941854, guid: 35ebb9aa89e0c674b880926992b1de1d, type: 3}
    - {fileID: 609119230, guid: 35ebb9aa89e0c674b880926992b1de1d, type: 3}
    - {fileID: -804576254, guid: 35ebb9aa89e0c674b880926992b1de1d, type: 3}
    - {fileID: 948280559, guid: 35ebb9aa89e0c674b880926992b1de1d, type: 3}
    - {fileID: 1602637583, guid: 35ebb9aa89e0c674b880926992b1de1d, type: 3}
    - {fileID: -45341016, guid: 35ebb9aa89e0c674b880926992b1de1d, type: 3}
    - {fileID: 839708396, guid: 35ebb9aa89e0c674b880926992b1de1d, type: 3}
    - {fileID: -1336343225, guid: 35ebb9aa89e0c674b880926992b1de1d, type: 3}
    - {fileID: -290895148, guid: 35ebb9aa89e0c674b880926992b1de1d, type: 3}
    - {fileID: -1441857236, guid: 35ebb9aa89e0c674b880926992b1de1d, type: 3}
  m_AnimationClipSettings:
    serializedVersion: 2
    m_AdditiveReferencePoseClip: {fileID: 0}
    m_AdditiveReferencePoseTime: 0
    m_StartTime: 0
    m_StopTime: 0.93333334
    m_OrientationOffsetY: 0
    m_Level: 0
    m_CycleOffset: 0
    m_HasAdditiveReferencePose: 0
    m_LoopTime: 1
    m_LoopBlend: 0
    m_LoopBlendOrientation: 0
    m_LoopBlendPositionY: 0
    m_LoopBlendPositionXZ: 0
    m_KeepOriginalOrientation: 0
    m_KeepOriginalPositionY: 1
    m_KeepOriginalPositionXZ: 0
    m_HeightFromFeet: 0
    m_Mirror: 0
  m_EditorCurves: []
  m_EulerEditorCurves: []
  m_HasGenericRootTransform: 0
  m_HasMotionFloatCurves: 0
  m_Events: []
