%YAML 1.1
%TAG !u! tag:unity3d.com,2011:
--- !u!74 &7400000
AnimationClip:
  m_ObjectHideFlags: 0
  m_CorrespondingSourceObject: {fileID: 0}
  m_PrefabInstance: {fileID: 0}
  m_PrefabAsset: {fileID: 0}
  m_Name: bonesMuere 1
  serializedVersion: 6
  m_Legacy: 0
  m_Compressed: 0
  m_UseHighQualityCurve: 1
  m_RotationCurves: []
  m_CompressedRotationCurves: []
  m_EulerCurves: []
  m_PositionCurves: []
  m_ScaleCurves: []
  m_FloatCurves: []
  m_PPtrCurves:
  - curve:
    - time: 0
      value: {fileID: 1941014527, guid: f1b862d897808cd4392ca2b3cf06cd33, type: 3}
    - time: 0.15
      value: {fileID: -2064363692, guid: f1b862d897808cd4392ca2b3cf06cd33, type: 3}
    - time: 0.3
      value: {fileID: -938982305, guid: f1b862d897808cd4392ca2b3cf06cd33, type: 3}
    - time: 0.45
      value: {fileID: 2089109087, guid: f1b862d897808cd4392ca2b3cf06cd33, type: 3}
    - time: 0.6
      value: {fileID: 2024160000, guid: f1b862d897808cd4392ca2b3cf06cd33, type: 3}
    - time: 0.75
      value: {fileID: 201952410, guid: f1b862d897808cd4392ca2b3cf06cd33, type: 3}
    - time: 0.9
      value: {fileID: -185513764, guid: f1b862d897808cd4392ca2b3cf06cd33, type: 3}
    - time: 1.05
      value: {fileID: 692177385, guid: f1b862d897808cd4392ca2b3cf06cd33, type: 3}
    - time: 1.2
      value: {fileID: -1126600302, guid: f1b862d897808cd4392ca2b3cf06cd33, type: 3}
    - time: 1.4166666
      value: {fileID: -1724142255, guid: f1b862d897808cd4392ca2b3cf06cd33, type: 3}
    - time: 2.2833333
      value: {fileID: 1941014527, guid: f1b862d897808cd4392ca2b3cf06cd33, type: 3}
    attribute: m_Sprite
    path: 
    classID: 212
    script: {fileID: 0}
  m_SampleRate: 60
  m_WrapMode: 0
  m_Bounds:
    m_Center: {x: 0, y: 0, z: 0}
    m_Extent: {x: 0, y: 0, z: 0}
  m_ClipBindingConstant:
    genericBindings:
    - serializedVersion: 2
      path: 0
      attribute: 0
      script: {fileID: 0}
      typeID: 212
      customType: 23
      isPPtrCurve: 1
    pptrCurveMapping:
    - {fileID: 1941014527, guid: f1b862d897808cd4392ca2b3cf06cd33, type: 3}
    - {fileID: -2064363692, guid: f1b862d897808cd4392ca2b3cf06cd33, type: 3}
    - {fileID: -938982305, guid: f1b862d897808cd4392ca2b3cf06cd33, type: 3}
    - {fileID: 2089109087, guid: f1b862d897808cd4392ca2b3cf06cd33, type: 3}
    - {fileID: 2024160000, guid: f1b862d897808cd4392ca2b3cf06cd33, type: 3}
    - {fileID: 201952410, guid: f1b862d897808cd4392ca2b3cf06cd33, type: 3}
    - {fileID: -185513764, guid: f1b862d897808cd4392ca2b3cf06cd33, type: 3}
    - {fileID: 692177385, guid: f1b862d897808cd4392ca2b3cf06cd33, type: 3}
    - {fileID: -1126600302, guid: f1b862d897808cd4392ca2b3cf06cd33, type: 3}
    - {fileID: -1724142255, guid: f1b862d897808cd4392ca2b3cf06cd33, type: 3}
    - {fileID: 1941014527, guid: f1b862d897808cd4392ca2b3cf06cd33, type: 3}
  m_AnimationClipSettings:
    serializedVersion: 2
    m_AdditiveReferencePoseClip: {fileID: 0}
    m_AdditiveReferencePoseTime: 0
    m_StartTime: 0
    m_StopTime: 2.3
    m_OrientationOffsetY: 0
    m_Level: 0
    m_CycleOffset: 0
    m_HasAdditiveReferencePose: 0
    m_LoopTime: 1
    m_LoopBlend: 0
    m_LoopBlendOrientation: 0
    m_LoopBlendPositionY: 0
    m_LoopBlendPositionXZ: 0
    m_KeepOriginalOrientation: 0
    m_KeepOriginalPositionY: 1
    m_KeepOriginalPositionXZ: 0
    m_HeightFromFeet: 0
    m_Mirror: 0
  m_EditorCurves: []
  m_EulerEditorCurves: []
  m_HasGenericRootTransform: 0
  m_HasMotionFloatCurves: 0
  m_Events: []
